ifc\edu\br\mv9webhib\model\Fornecedor.class
ifc\edu\br\mv9webhib\model\Cargo.class
ifc\edu\br\mv9webhib\resources\JakartaEE9Resource.class
ifc\edu\br\mv9webhib\model\Compra.class
ifc\edu\br\mv9webhib\model\PessoaBase.class
ifc\edu\br\mv9webhib\dao\DAO.class
ifc\edu\br\mv9webhib\model\Veiculo.class
ifc\edu\br\mv9webhib\model\Pessoa.class
ifc\edu\br\mv9webhib\model\Usuario.class
ifc\edu\br\mv9webhib\model\Venda.class
ifc\edu\br\mv9webhib\control\Geral.class
ifc\edu\br\mv9webhib\JakartaRestConfiguration.class
ifc\edu\br\mv9webhib\model\Vendedor.class
ifc\edu\br\mv9webhib\util\CriarTabelas.class
ifc\edu\br\mv9webhib\model\Cliente.class
ifc\edu\br\mv9webhib\model\TestarPessoa.class
ifc\edu\br\mv9webhib\model\EntidadeBase.class
ifc\edu\br\mv9webhib\model\EmEstoque.class
