D:\Trabalho\IFC\PROG4\av1c\av1c\src\main\java\ifc\edu\br\mv9webhib\model\EmEstoque.java
D:\Trabalho\IFC\PROG4\av1c\av1c\src\main\java\ifc\edu\br\mv9webhib\model\Fornecedor.java
D:\Trabalho\IFC\PROG4\av1c\av1c\src\main\java\ifc\edu\br\mv9webhib\resources\JakartaEE9Resource.java
D:\Trabalho\IFC\PROG4\av1c\av1c\src\main\java\ifc\edu\br\mv9webhib\control\Geral.java
D:\Trabalho\IFC\PROG4\av1c\av1c\src\main\java\ifc\edu\br\mv9webhib\model\Veiculo.java
D:\Trabalho\IFC\PROG4\av1c\av1c\src\main\java\ifc\edu\br\mv9webhib\model\Pessoa.java
D:\Trabalho\IFC\PROG4\av1c\av1c\src\main\java\ifc\edu\br\mv9webhib\model\PessoaBase.java
D:\Trabalho\IFC\PROG4\av1c\av1c\src\main\java\ifc\edu\br\mv9webhib\model\Compra.java
D:\Trabalho\IFC\PROG4\av1c\av1c\src\main\java\ifc\edu\br\mv9webhib\model\TestarPessoa.java
D:\Trabalho\IFC\PROG4\av1c\av1c\src\main\java\ifc\edu\br\mv9webhib\JakartaRestConfiguration.java
D:\Trabalho\IFC\PROG4\av1c\av1c\src\main\java\ifc\edu\br\mv9webhib\model\Venda.java
D:\Trabalho\IFC\PROG4\av1c\av1c\src\main\java\ifc\edu\br\mv9webhib\dao\DAO.java
D:\Trabalho\IFC\PROG4\av1c\av1c\src\main\java\ifc\edu\br\mv9webhib\model\EntidadeBase.java
D:\Trabalho\IFC\PROG4\av1c\av1c\src\main\java\ifc\edu\br\mv9webhib\util\CriarTabelas.java
D:\Trabalho\IFC\PROG4\av1c\av1c\src\main\java\ifc\edu\br\mv9webhib\model\Cargo.java
D:\Trabalho\IFC\PROG4\av1c\av1c\src\main\java\ifc\edu\br\mv9webhib\model\Usuario.java
D:\Trabalho\IFC\PROG4\av1c\av1c\src\main\java\ifc\edu\br\mv9webhib\model\Vendedor.java
D:\Trabalho\IFC\PROG4\av1c\av1c\src\main\java\ifc\edu\br\mv9webhib\model\Cliente.java
